Module3_MADA – Asmith Joseph Data Analysis Portfolio
…
#There is a clear negative correlation in the Life Expectancy vs Infant Mortality plot: as infant mortality increases, life expectancy decreases. This reflects how poor healthcare, sanitation, and poverty impact life expectancy. The streaks in the plot occur because the dataset includes repeated measurements for each country across multiple years. Over time, as a country’s infant mortality rate and life expectancy change, the points form smooth, line-like patterns.
#In the Life Expectancy vs Population Size plot, we observe a positive correlation: countries with larger populations tend to have higher life expectancies. Larger populations are often associated with better infrastructure, stronger economies, and advanced healthcare. The x-axis uses a logarithmic scale to display the wide range of population sizes better, preventing smaller populations from being compressed. Streaks also appear here, reflecting population growth over time and overlapping trends for countries with similar trajectories.
#These streaks arise because each country has multiple rows in the dataset, one for each year, with metrics like life expectancy, infant mortality, and population changing gradually. For example, Nigeria has 57 rows of data from 1960 onward.
#This illustrates how Nigeria’s population grows steadily while its life expectancy and infant mortality rates change gradually. These patterns repeat for other countries, forming the streaks observed in both plots.

#More data processing
# Checking which years have missing values for infant_mortality
missing_by_year <- africadata %>%
  group_by(year) %>%
  summarize(missing_values = sum(is.na(infant_mortality)))  # Count missing values per year

# checking to see the years with missing data
print(missing_by_year)

# A tibble: 57 × 2
    year missing_values
   <int>          <int>
 1  1960             10
 2  1961             17
 3  1962             16
 4  1963             16
 5  1964             15
 6  1965             14
 7  1966             13
 8  1967             11
 9  1968             11
10  1969              7
# ℹ 47 more rows
…
